Digitatechnik/simulation/qsim/first.msim.vcd
$comment
	File created using the following command:
		vcd file first.msim.vcd -direction
$end
$date
	Fri Nov 19 00:04:06 2021
$end
$version
	ModelSim Version 2020.1
$end
$timescale
	1ps
$end

$scope module first_vlg_vec_tst $end
$var reg 1 ! A $end
$var reg 1 " B $end
$var reg 1 # C $end
$var reg 1 $ D $end
$var wire 1 % X $end

$scope module i1 $end
$var wire 1 & gnd $end
$var wire 1 ' vcc $end
$var wire 1 ( unknown $end
$var tri1 1 ) devclrn $end
$var tri1 1 * devpor $end
$var tri1 1 + devoe $end
$var wire 1 , X~output_o $end
$var wire 1 - C~input_o $end
$var wire 1 . B~input_o $end
$var wire 1 / D~input_o $end
$var wire 1 0 A~input_o $end
$var wire 1 1 inst1~combout $end
$upscope $end
$upscope $end
$enddefinitions $end
#0
$dumpvars
0!
0"
0#
1$
0%
0&
1'
x(
1)
1*
1+
0,
0-
0.
1/
00
01
$end
#6000000
1!
10
#8500000
1"
1.
11
1,
1%
#12000000
0!
00
01
0,
0%
#17000000
0"
0.
#18000000
1!
10
#24000000
0!
00
#25500000
1"
1.
#30000000
1!
10
11
1,
1%
#34000000
0"
0.
01
0,
0%
#36000000
0!
00
#42000000
1!
10
#42500000
1"
1.
11
1,
1%
#48000000
0!
00
01
0,
0%
#51000000
0"
0.
#54000000
1!
10
#59500000
1"
1.
11
1,
1%
#60000000
0!
00
01
0,
0%
#66000000
1!
10
11
1,
1%
#68000000
0"
0.
01
0,
0%
#72000000
0!
00
#76500000
1"
1.
#78000000
1!
10
11
1,
1%
#84000000
0!
00
01
0,
0%
#85000000
0"
0.
#90000000
1!
10
#93500000
1"
1.
11
1,
1%
#96000000
0!
00
01
0,
0%
